Digimon, Digital Monster - Identifying The Strongest of All
…
And by Stage and Attribute?

digimon_list %>%
  group_by(Stage, Attribute) %>%
  summarise(count = n()) %>%
  arrange(-count)

## # A tibble: 51 x 3
## # Groups:   Stage [8]
##    Stage    Attribute count
##    <chr>    <chr>     <int>
##  1 Mega     Dark         13
##  2 Mega     Light        11
##  3 Champion Fire         10
##  4 Mega     Electric     10
##  5 Ultimate Dark         10
##  6 Champion Earth         8
##  7 Mega     Wind          8
##  8 Ultimate Fire          8
##  9 Champion Plant         7
## 10 Champion Water         7
## # ... with 41 more rows
…
Which Digimon is most frequently chosen when trying to make a team that consists of the most powerful Digimon in each stage?

digi_teams %>%
  group_by(Digimon) %>%
  summarise(count = n()) %>%
  arrange(-count) %>%
  left_join(digimon_list, by = c("Digimon", "Digimon")) %>%
  select(Digimon, count, Stage, Type, Attribute) %>%
  mutate(perc = paste0(count / 5 * 100, "%"))

## # A tibble: 37 x 6
##    Digimon      count Stage       Type    Attribute perc 
##    <chr>        <int> <chr>       <chr>   <chr>     <chr>
##  1 Lucemon          4 Rookie      Vaccine Light     80%  
##  2 Magnamon         4 Armor       Free    Earth     80%  
##  3 Chaosmon         2 Ultra       Vaccine Neutral   40%  
##  4 Koromon          2 In-Training Free    Fire      40%  
##  5 Lucemon SM       2 Ultra       Virus   Dark      40%  
##  6 Nyaromon         2 In-Training Free    Light     40%  
##  7 Poyomon          2 Baby        Free    Neutral   40%  
##  8 Bakemon          1 Champion    Virus   Dark      20%  
##  9 Barbamon         1 Mega        Virus   Dark      20%  
## 10 Belphemon RM     1 Ultra       Virus   Dark      20%  
## # ... with 27 more rows
…
